sjPlot und plot_model
…
allb_r

## # A tibble: 3,471 x 38
##    alter bildung geschl einkommen keineberufsausbildung arbeitsstd  V269
##    <dbl>   <dbl>  <dbl>     <dbl>                 <dbl>      <dbl> <dbl>
##  1    33       5      2        14                     0         40     2
##  2    50       3      2         9                     0         43     1
##  3    56       3      1        17                     0         70     2
##  4    61       3      1         8                     0         NA     1
##  5    59       3      2         9                     0         20     1
##  6    56       3      1        21                     0         60     2
##  7    66       2      1        12                     0         NA     2
##  8    25       5      2        NA                     0         40     2
##  9    58       4      1        13                     0         NA     2
## 10    53       3      1        19                     0         35     1
## # ... with 3,461 more rows, and 31 more variables: beruf <dbl>,
## #   westost <dbl>, V13 <dbl>, internet <dbl>, computer <dbl>, essen <dbl>,
## #   besuchfreunde <dbl>, besuchfamilie <dbl>, kunst <dbl>, theater <dbl>,
## #   museum <dbl>, haushaltseinkommen <dbl>, wirtschaftslage <dbl>,
## #   V209 <dbl>, V279 <dbl>, fernsehenmin <dbl>, dauerbildung <dbl>,
## #   demzufr <dbl>, linksrechts <dbl>, prokopfeink <dbl>,
## #   krankengeldhh <dbl>, elterngeldhh <dbl>, gebd <dbl>, alter0 <dbl>,
## #   alter0quad <dbl>, bildung_rec <dbl>, geschl_rec <dbl>, ganztags <dbl>,
## #   halbtags <dbl>, west <dbl>, immigrant <dbl>
…
